…
```

The problem is "Create a line plot that shows the average duration of storms overtime.  x-axis should be the year and the y-axis should be average storm duration."

To get the averge duration, we need to firstly get the duration of each storm.

There are two ways to calculate a new col duration based on existing cols.  If we look at col hour, seems the sample interval is 6-hour.  So we can count the rows with the same name and year, and multiple 6h to get the during in that year.
Another way to calculate duration is to calculate by time difference.  This way seems more safe.


```
> a<- storms %>% mutate(datetime = ymd_h(paste(year, month, day, hour,sep = "-"))) %>% group_by(name, year) %>% summarise(duration_h = as.numeric(difftime(max(datetime), min(datetime), units = "hour")), .groups = "drop") %>% group_by(year) %>% summarise(avg_d = mean(duration_h, na.rm = TRUE))
> 
> a
# A tibble: 48 × 2
    year avg_d
   <dbl> <dbl>
 1  1975  172.
 2  1976  183.
 3  1977  100 
 4  1978  121.
 5  1979  237 
 6  1980  177.
 7  1981  170.
 8  1982  127.
 9  1983  122.
10  1984  164.
# ℹ 38 more rows
# ℹ Use `print(n = ...)` to see more rows
```
